Data Science with R (AECN 896-05) – 08-2: Make Regression and Summary Tables with modelsummary
…
First install the r.spatial.workshop.datasets package.

#--- install the r.spatial.workshop.datasets package ---#
install.packages("r.spatial.workshop.datasets", repos = c("https://tmieno2.r-universe.dev", "https://cran.r-project.org"))

Then, get the data:

#--- get the data ---#
data(county_yield, package = "r.spatial.workshop.datasets")

county_yield <- dplyr::select(county_yield, - geometry)

county_yield

# A tibble: 1,956 × 10
   corn_yield soy_yield  year county_code state_name d0_5_9 d1_5_9 d2_5_9 d3_5_9
        <dbl>     <dbl> <int> <chr>       <chr>       <dbl>  <dbl>  <dbl>  <dbl>
 1       123       42    2000 053         Kansas       2.49  2.87   0.134   0   
 2       188.      NA    2017 095         Kansas       8.72  0      0       0   
 3       169.      58.4  2016 095         Kansas       1     0      0       0   
 4       198.      NA    2015 095         Kansas       1.76  1.21   2.09    0   
 5       152.      NA    2012 095         Kansas       6.28  1.47   9.54    4.46
 6       170       42    2007 095         Kansas       0     0      0       0   
 7       193       49    2005 095         Kansas       4.32  0      0       0   
 8       173       47    2003 095         Kansas       2.29  5.16   4.46    1.09
 9       165       40    2002 095         Kansas       3.71  1.48   1.90    0   
10       171       52    2001 095         Kansas       9.88  0.188  0       0   
# ℹ 1,946 more rows
# ℹ 1 more variable: d4_5_9 <dbl>
…
