flipbook-test – Data Science with R (AECN 896-05)
…
library(socviz)

library(flipbookr)

Flipbookr Runthrough

gss_sm

# A tibble: 2,867 × 32
    year    id ballot       age childs sibs   degree race  sex   region income16
   <dbl> <dbl> <labelled> <dbl>  <dbl> <labe> <fct>  <fct> <fct> <fct>  <fct>   
 1  2016     1 1             47      3 2      Bache… White Male  New E… $170000…
 2  2016     2 2             61      0 3      High … White Male  New E… $50000 …
 3  2016     3 3             72      2 3      Bache… White Male  New E… $75000 …
 4  2016     4 1             43      4 3      High … White Fema… New E… $170000…
 5  2016     5 3             55      2 2      Gradu… White Fema… New E… $170000…
 6  2016     6 2             53      2 2      Junio… White Fema… New E… $60000 …
 7  2016     7 1             50      2 2      High … White Male  New E… $170000…
 8  2016     8 3             23      3 6      High … Other Fema… Middl… $30000 …
 9  2016     9 1             45      3 5      High … Black Male  Middl… $60000 …
10  2016    10 3             71      4 1      Junio… White Male  Middl… $60000 …
# ℹ 2,857 more rows
# ℹ 21 more variables: relig <fct>, marital <fct>, padeg <fct>, madeg <fct>,
#   partyid <fct>, polviews <fct>, happy <fct>, partners <fct>, grass <fct>,
#   zodiac <fct>, pres12 <labelled>, wtssall <dbl>, income_rc <fct>,
#   agegrp <fct>, ageq <fct>, siblings <fct>, kids <fct>, religion <fct>,
#   bigregion <fct>, partners_rc <fct>, obama <dbl>

Flipbookr Runthrough

gss_sm |>
  group_by(bigregion, religion)

# A tibble: 2,867 × 32
# Groups:   bigregion, religion [24]
    year    id ballot       age childs sibs   degree race  sex   region income16
   <dbl> <dbl> <labelled> <dbl>  <dbl> <labe> <fct>  <fct> <fct> <fct>  <fct>   
 1  2016     1 1             47      3 2      Bache… White Male  New E… $170000…
 2  2016     2 2             61      0 3      High … White Male  New E… $50000 …
 3  2016     3 3             72      2 3      Bache… White Male  New E… $75000 …
 4  2016     4 1             43      4 3      High … White Fema… New E… $170000…
 5  2016     5 3             55      2 2      Gradu… White Fema… New E… $170000…
 6  2016     6 2             53      2 2      Junio… White Fema… New E… $60000 …
 7  2016     7 1             50      2 2      High … White Male  New E… $170000…
 8  2016     8 3             23      3 6      High … Other Fema… Middl… $30000 …
 9  2016     9 1             45      3 5      High … Black Male  Middl… $60000 …
10  2016    10 3             71      4 1      Junio… White Male  Middl… $60000 …
# ℹ 2,857 more rows
# ℹ 21 more variables: relig <fct>, marital <fct>, padeg <fct>, madeg <fct>,
#   partyid <fct>, polviews <fct>, happy <fct>, partners <fct>, grass <fct>,
#   zodiac <fct>, pres12 <labelled>, wtssall <dbl>, income_rc <fct>,
#   agegrp <fct>, ageq <fct>, siblings <fct>, kids <fct>, religion <fct>,
#   bigregion <fct>, partners_rc <fct>, obama <dbl>

Flipbookr Runthrough

gss_sm |>
  group_by(bigregion, religion) |>
  tally()

# A tibble: 24 × 3
# Groups:   bigregion [4]
   bigregion religion       n
   <fct>     <fct>      <int>
 1 Northeast Protestant   158
 2 Northeast Catholic     162
 3 Northeast Jewish        27
 4 Northeast None         112
 5 Northeast Other         28
 6 Northeast <NA>           1
 7 Midwest   Protestant   325
 8 Midwest   Catholic     172
 9 Midwest   Jewish         3
10 Midwest   None         157
# ℹ 14 more rows

Flipbookr Runthrough

gss_sm |>
  group_by(bigregion, religion) |>
  tally() |>
  mutate(pct = round((n / sum(n)) * 100, 1))

# A tibble: 24 × 4
# Groups:   bigregion [4]
   bigregion religion       n   pct
   <fct>     <fct>      <int> <dbl>
 1 Northeast Protestant   158  32.4
 2 Northeast Catholic     162  33.2
 3 Northeast Jewish        27   5.5
 4 Northeast None         112  23  
 5 Northeast Other         28   5.7
 6 Northeast <NA>           1   0.2
 7 Midwest   Protestant   325  46.8
 8 Midwest   Catholic     172  24.7
 9 Midwest   Jewish         3   0.4
10 Midwest   None         157  22.6
# ℹ 14 more rows
…
