Data Science with R (AECN 896-05) - 03-1: Importing Files and Exporting to Files
…
HousePrices_tbl

# A tibble: 546 × 12
   price lotsize bedrooms bathrooms stories driveway recreation fullbase gasheat
   <dbl>   <dbl>    <dbl>     <dbl>   <dbl> <fct>    <fct>      <fct>    <fct>  
 1 42000    5850        3         1       2 yes      no         yes      no     
 2 38500    4000        2         1       1 yes      no         no       no     
 3 49500    3060        3         1       1 yes      no         no       no     
 4 60500    6650        3         1       2 yes      yes        no       no     
 5 61000    6360        2         1       1 yes      no         no       no     
 6 66000    4160        3         1       1 yes      yes        yes      no     
 7 66000    3880        3         2       2 yes      no         yes      no     
 8 69000    4160        3         1       3 yes      no         no       no     
 9 83800    4800        3         1       1 yes      yes        yes      no     
10 88500    5500        3         2       4 yes      yes        no       no     
# ℹ 536 more rows
# ℹ 3 more variables: aircon <fct>, garage <dbl>, prefer <fct>
…
type preservation

You can export any kind of R objects as an rds file.

a_list <- list(a = c("R", "rocks"), b = corn_yields)   

saveRDS(a_list, "a_list.rds")

readRDS("a_list.rds")

$a
[1] "R"     "rocks"

$b
# A tibble: 161 × 9
    Year State  FIPS County_name State_name Commodity `Data item`      Irrigated
   <int> <int> <int> <chr>       <chr>      <chr>     <chr>                <int>
 1  2008    31 31019 BUFFALO     NEBRASKA   CORN      CORN, GRAIN - Y…         0
 2  2008    31 31019 BUFFALO     NEBRASKA   CORN      CORN, GRAIN, IR…         1
 3  2008    31 31041 CUSTER      NEBRASKA   CORN      CORN, GRAIN - Y…         0
 4  2008    31 31041 CUSTER      NEBRASKA   CORN      CORN, GRAIN, IR…         1
 5  2008    31 31047 DAWSON      NEBRASKA   CORN      CORN, GRAIN - Y…         0
 6  2008    31 31047 DAWSON      NEBRASKA   CORN      CORN, GRAIN, IR…         1
 7  2008    31 31077 GREELEY     NEBRASKA   CORN      CORN, GRAIN - Y…         0
 8  2008    31 31077 GREELEY     NEBRASKA   CORN      CORN, GRAIN, IR…         1
 9  2008    31 31079 HALL        NEBRASKA   CORN      CORN, GRAIN - Y…         0
10  2008    31 31079 HALL        NEBRASKA   CORN      CORN, GRAIN, IR…         1
# ℹ 151 more rows
# ℹ 1 more variable: Yield <int>
…
